dump_risc.vcd
$date
	Wed Jul  1 01:45:35 2026
$end
$version
	Icarus Verilog
$end
$timescale
	1ps
$end
$scope module tb_risc $end
$var wire 1 ! branch_mispredict $end
$var wire 1 " branch_resolved $end
$var wire 1 # pipeline_flushed $end
$var wire 1 $ pipeline_stalled $end
$var wire 5 % wb_addr [4:0] $end
$var wire 32 & wb_data [31:0] $end
$var wire 32 ' wb_pc_cur [31:0] $end
$var wire 1 ( wb_we $end
$var wire 1 ) spi_sclk $end
$var wire 1 * spi_mosi $end
$var wire 1 + spi_cs_n $end
$var wire 32 , imem_addr [31:0] $end
$var reg 1 - clk $end
$var reg 32 . imem_data [31:0] $end
$var reg 1 / rst_n $end
$var reg 1 0 spi_miso $end
$var reg 32 1 wb_pc_prev [31:0] $end
$var integer 32 2 branch_mispredicts [31:0] $end
$var integer 32 3 branch_total [31:0] $end
$var integer 32 4 cycle_count [31:0] $end
$var integer 32 5 errors [31:0] $end
$var integer 32 6 instr_count [31:0] $end
$var integer 32 7 k [31:0] $end
$scope module u_system $end
$var wire 1 - clk $end
$var wire 32 8 imem_data [31:0] $end
$var wire 1 9 mmio_ready $end
$var wire 1 / rst_n $end
$var wire 1 0 spi_miso $end
$var wire 1 : spi_wr_en $end
$var wire 1 ; wb_reg_write $end
$var wire 5 < wb_rd_addr [4:0] $end
$var wire 32 = wb_fwd_data [31:0] $end
$var wire 1 > stall_mem $end
$var wire 1 ? stall_if $end
$var wire 1 @ stall_id $end
$var wire 1 A stall_ex $end
$var wire 1 ) spi_sclk $end
$var wire 1 B spi_rx_valid $end
$var wire 8 C spi_rx_data [7:0] $end
$var wire 1 * spi_mosi $end
$var wire 1 D spi_full $end
$var wire 1 E spi_empty $end
$var wire 1 + spi_cs_n $end
$var wire 1 F spi_busy $end
$var wire 32 G rs2_data_fwd [31:0] $end
$var wire 32 H rs2_data [31:0] $end
$var wire 5 I rs2_addr [4:0] $end
$var wire 32 J rs1_data_fwd [31:0] $end
$var wire 32 K rs1_data [31:0] $end
$var wire 5 L rs1_addr [4:0] $end
$var wire 1 M mmio_wr_en $end
$var wire 32 N mmio_wdata [31:0] $end
$var wire 1 O mmio_req $end
$var wire 32 P mmio_rdata [31:0] $end
$var wire 32 Q mmio_addr [31:0] $end
$var wire 2 R mem_wb_sel [1:0] $end
$var wire 32 S mem_wb_read_data [31:0] $end
$var wire 5 T mem_wb_rd_addr [4:0] $end
$var wire 32 U mem_wb_pc [31:0] $end
$var wire 32 V mem_wb_alu_result [31:0] $end
$var wire 1 W mem_reg_write $end
$var wire 32 X imem_addr [31:0] $end
$var wire 1 Y if_id_pred_taken $end
$var wire 32 Z if_id_pc [31:0] $end
$var wire 32 [ if_id_inst [31:0] $end
$var wire 2 \ id_wb_sel [1:0] $end
$var wire 1 ] id_reg_write $end
$var wire 1 ^ id_mem_write $end
$var wire 1 _ id_mem_read $end
$var wire 32 ` id_ex_rs2_data [31:0] $end
$var wire 5 a id_ex_rs2_addr [4:0] $end
$var wire 32 b id_ex_rs1_data [31:0] $end
$var wire 5 c id_ex_rs1_addr [4:0] $end
$var wire 5 d id_ex_rd_addr [4:0] $end
$var wire 32 e id_ex_pc [31:0] $end
$var wire 32 f id_ex_imm [31:0] $end
$var wire 1 g id_alu_src $end
$var wire 4 h id_alu_op [3:0] $end
$var wire 2 i fwd_b [1:0] $end
$var wire 2 j fwd_a [1:0] $end
$var wire 1 k flush_ex $end
$var wire 2 l ex_wb_sel [1:0] $end
$var wire 1 m ex_reg_write $end
$var wire 1 n ex_mem_write $end
$var wire 32 o ex_mem_rs2_data [31:0] $end
$var wire 1 p ex_mem_read $end
$var wire 5 q ex_mem_rd_addr [4:0] $end
$var wire 32 r ex_mem_pc [31:0] $end
$var wire 32 s ex_mem_alu_result [31:0] $end
$var wire 1 t cache_wr_en $end
$var wire 32 u cache_wdata [31:0] $end
$var wire 1 v cache_req $end
$var wire 32 w cache_rdata [31:0] $end
$var wire 1 x cache_hit $end
$var wire 32 y cache_addr [31:0] $end
$var wire 32 z actual_target [31:0] $end
$var wire 32 { actual_pc [31:0] $end
$var wire 1 | actual_mispredict $end
$var wire 1 } actual_branch_valid $end
$var wire 1 ~ actual_branch_taken $end
$var reg 1 !" spi_cpha $end
$var reg 1 "" spi_cpol $end
$scope module spi_ctrl $end
$var wire 1 F busy $end
$var wire 1 - clk $end
$var wire 1 !" cpha $end
$var wire 1 "" cpol $end
$var wire 1 E empty $end
$var wire 1 0 miso $end
$var wire 1 #" pop_ok $end
$var wire 1 / rst_n $end
$var wire 8 $" wr_data [7:0] $end
$var wire 1 : wr_en $end
$var wire 8 %" tx_data_int [7:0] $end
$var wire 1 ) sclk $end
$var wire 1 B rx_valid $end
$var wire 8 &" rx_data [7:0] $end
$var wire 1 * mosi $end
$var wire 1 D full $end
$var wire 1 '" fifo_empty $end
$var wire 1 + cs_n $end
$var wire 1 (" core_busy $end
$var parameter 32 )" ADDR_WIDTH $end
$var parameter 32 *" CLK_DIV $end
$var parameter 32 +" DATA_WIDTH $end
$var reg 1 ," core_start $end
$var reg 1 -" fifo_rd_en $end
$scope module spi_engine $end
$var wire 1 - clk $end
$var wire 1 !" cpha $end
$var wire 1 "" cpol $end
$var wire 1 0 miso $end
$var wire 1 / rst_n $end
$var wire 1 ," start $end
$var wire 8 ." tx_data [7:0] $end
$var wire 1 /" shift_edge $end
$var wire 1 0" sample_edge $end
$var wire 1 1" last_edge $end
$var wire 1 2" clk_tick $end
$var parameter 2 3" ACTIVE $end
$var parameter 32 4" CLK_DIV $end
$var parameter 32 5" DATA_WIDTH $end
$var parameter 2 6" DONE $end
$var parameter 2 7" IDLE $end
$var reg 1 (" busy $end
$var reg 2 8" clk_cnt [1:0] $end
$var reg 1 + cs_n $end
$var reg 4 9" edge_cnt [3:0] $end
$var reg 1 * mosi $end
$var reg 8 :" rx_data [7:0] $end
$var reg 8 ;" rx_shift [7:0] $end
$var reg 1 B rx_valid $end
$var reg 1 ) sclk $end
$var reg 2 <" state [1:0] $end
$var reg 8 =" tx_shift [7:0] $end
$scope function log2 $end
$var integer 32 >" i [31:0] $end
$var integer 32 ?" value [31:0] $end
$upscope $end
$upscope $end
$scope module tx_buffer $end
$var wire 1 - clk $end
$var wire 1 D full $end
$var wire 1 -" rd_en $end
$var wire 1 / rst_n $end
$var wire 8 @" wr_data [7:0] $end
$var wire 1 : wr_en $end
$var wire 1 '" empty $end
$var parameter 32 A" ADDR_WIDTH $end
$var parameter 32 B" DATA_WIDTH $end
$var parameter 35 C" DEPTH $end
$var reg 8 D" rd_data [7:0] $end
$var reg 4 E" rd_ptr [3:0] $end
$var reg 4 F" wr_ptr [3:0] $end
$upscope $end
$upscope $end
$scope module u_cache $end
$var wire 1 - clk $end
$var wire 1 x hit $end
$var wire 1 G" is_hit $end
$var wire 32 H" rdata [31:0] $end
$var wire 1 / rst_n $end
$var wire 1 I" valid_match $end
$var wire 1 t wr_en $end
$var wire 32 J" wdata [31:0] $end
$var wire 1 K" tag_match $end
$var wire 24 L" tag [23:0] $end
$var wire 1 v req $end
$var wire 6 M" index [5:0] $end
$var wire 32 N" addr [31:0] $end
$var parameter 32 O" CACHE_ADDR_BITS $end
$var parameter 38 P" CACHE_DEPTH $end
$var parameter 32 Q" MEM_LATENCY $end
$var parameter 32 R" PC_WIDTH $end
$var parameter 2 S" STATE_FETCH $end
$var parameter 2 T" STATE_IDLE $end
$var parameter 2 U" STATE_READY $end
$var parameter 34 V" TAG_BITS $end
$var parameter 32 W" zer0 $end
$var reg 2 X" state [1:0] $end
$var reg 8 Y" wait_cnt [7:0] $end
$var integer 32 Z" i [31:0] $end
$upscope $end
$scope module u_decode $end
$var wire 1 ~ actual_branch_taken $end
$var wire 1 } actual_branch_valid $end
$var wire 1 | actual_mispredict $end
$var wire 32 [" actual_pc [31:0] $end
$var wire 1 - clk $end
$var wire 1 / rst_n $end
$var wire 32 \" s_rs1 [31:0] $end
$var wire 32 ]" s_rs2 [31:0] $end
$var wire 1 @ stall $end
$var wire 32 ^" rs2_data_fwd [31:0] $end
$var wire 5 _" rs2_addr [4:0] $end
$var wire 32 `" rs1_data_fwd [31:0] $end
$var wire 5 a" rs1_addr [4:0] $end
$var wire 5 b" rd_addr [4:0] $end
$var wire 7 c" opcode [6:0] $end
$var wire 1 d" neq $end
$var wire 1 e" lt $end
$var wire 1 f" is_jal $end
$var wire 1 g" is_branch $end
$var wire 1 Y if_id_pred_taken $end
$var wire 32 h" if_id_pc [31:0] $end
$var wire 32 i" if_id_inst [31:0] $end
$var wire 1 j" ge $end
$var wire 7 k" funct7 [6:0] $end
$var wire 3 l" funct3 [2:0] $end
$var wire 1 k flush $end
$var wire 1 m" eq $end
$var wire 1 n" branch_condition_met $end
$var wire 32 o" actual_target [31:0] $end
$var parameter 32 p" PC_WIDTH $end
$var parameter 32 q" RV32I_NOA $end
$var reg 4 r" ctrl_alu_op [3:0] $end
$var reg 1 s" ctrl_alu_src $end
$var reg 1 t" ctrl_mem_read $end
$var reg 1 u" ctrl_mem_write $end
$var reg 1 v" ctrl_reg_write $end
$var reg 2 w" ctrl_wb_sel [1:0] $end
$var reg 4 x" id_alu_op [3:0] $end
$var reg 1 g id_alu_src $end
$var reg 32 y" id_ex_imm [31:0] $end
$var reg 32 z" id_ex_pc [31:0] $end
$var reg 5 {" id_ex_rd_addr [4:0] $end
$var reg 5 |" id_ex_rs1_addr [4:0] $end
$var reg 32 }" id_ex_rs1_data [31:0] $end
$var reg 5 ~" id_ex_rs2_addr [4:0] $end
$var reg 32 !# id_ex_rs2_data [31:0] $end
$var reg 1 _ id_mem_read $end
$var reg 1 ^ id_mem_write $end
$var reg 1 ] id_reg_write $end
$var reg 2 "# id_wb_sel [1:0] $end
$var reg 32 ## imm_val [31:0] $end
$upscope $end
$scope module u_execute $end
$var wire 1 - clk $end
$var wire 1 $# flush $end
$var wire 4 %# id_alu_op [3:0] $end
$var wire 1 g id_alu_src $end
$var wire 32 &# id_ex_imm [31:0] $end
$var wire 32 '# id_ex_pc [31:0] $end
$var wire 5 (# id_ex_rd_addr [4:0] $end
$var wire 32 )# id_ex_rs1_data [31:0] $end
$var wire 32 *# id_ex_rs2_data [31:0] $end
$var wire 1 _ id_mem_read $end
$var wire 1 ^ id_mem_write $end
$var wire 1 ] id_reg_write $end
$var wire 2 +# id_wb_sel [1:0] $end
$var wire 32 ,# mem_fwd_data [31:0] $end
$var wire 1 / rst_n $end
$var wire 32 -# s_alu_in1 [31:0] $end
$var wire 32 .# s_alu_in2 [31:0] $end
$var wire 32 /# wb_fwd_data [31:0] $end
$var wire 1 A stall $end
$var wire 2 0# fwd_b [1:0] $end
$var wire 2 1# fwd_a [1:0] $end
$var wire 32 2# alu_in2 [31:0] $end
$var wire 32 3# alu_in1 [31:0] $end
$var parameter 32 4# PC_WIDTH $end
$var parameter 32 5# RV32I_NOA $end
$var reg 32 6# alu_out [31:0] $end
$var reg 32 7# ex_mem_alu_result [31:0] $end
$var reg 32 8# ex_mem_pc [31:0] $end
$var reg 5 9# ex_mem_rd_addr [4:0] $end
$var reg 1 p ex_mem_read $end
$var reg 32 :# ex_mem_rs2_data [31:0] $end
$var reg 1 n ex_mem_write $end
$var reg 1 m ex_reg_write $end
$var reg 2 ;# ex_wb_sel [1:0] $end
$var reg 32 <# fwd_rs1 [31:0] $end
$var reg 32 =# fwd_rs2 [31:0] $end
$upscope $end
$scope module u_fetch $end
$var wire 1 ~ actual_branch_taken $end
$var wire 1 } actual_branch_valid $end
$var wire 1 | actual_mispredict $end
$var wire 32 ># actual_pc [31:0] $end
$var wire 32 ?# actual_target [31:0] $end
$var wire 1 - clk $end
$var wire 2 @# current_bht [1:0] $end
$var wire 32 A# current_btb [31:0] $end
$var wire 22 B# current_tag [21:0] $end
$var wire 1 C# current_val $end
$var wire 1 | flush $end
$var wire 32 D# imem_addr [31:0] $end
$var wire 32 E# imem_data [31:0] $end
$var wire 1 F# pred_taken $end
$var wire 32 G# pred_target [31:0] $end
$var wire 1 / rst_n $end
$var wire 22 H# update_tag [21:0] $end
$var wire 8 I# update_idx [7:0] $end
$var wire 1 J# tag_match $end
$var wire 1 ? stall $end
$var wire 32 K# next_pc [31:0] $end
$var wire 22 L# fetch_tag [21:0] $end
$var wire 8 M# fetch_idx [7:0] $end
$var parameter 32 N# BT_ADDR_WIDTH $end
$var parameter 40 O# BT_DEPTH $end
$var parameter 32 P# PC_WIDTH $end
$var parameter 32 Q# RV32I_NOA $end
$var parameter 32 R# RV32I_NOP $end
$var parameter 2 S# SNT $end
$var parameter 2 T# ST $end
$var parameter 34 U# TAG_WIDTH $end
$var parameter 2 V# WNT $end
$var parameter 2 W# WT $end
$var reg 32 X# if_id_inst [31:0] $end
$var reg 32 Y# if_id_pc [31:0] $end
$var reg 1 Y if_id_pred_taken $end
$var reg 32 Z# pc_reg [31:0] $end
$var integer 32 [# i [31:0] $end
$upscope $end
$scope module u_hazard $end
$var wire 1 \# branch_stall $end
$var wire 32 ]# ex_alu_result [31:0] $end
$var wire 5 ^# ex_mem_rd_addr [4:0] $end
$var wire 1 _ ex_mem_read $end
$var wire 5 _# ex_mem_rs1_addr [4:0] $end
$var wire 5 `# ex_mem_rs2_addr [4:0] $end
$var wire 1 ] ex_reg_write $end
$var wire 1 k flush_ex $end
$var wire 5 a# id_ex_rs1_addr [4:0] $end
$var wire 5 b# id_ex_rs2_addr [4:0] $end
$var wire 1 c# id_hazard_stall $end
$var wire 1 } id_is_branch $end
$var wire 1 d# load_use_stall $end
$var wire 32 e# mem_fwd_data [31:0] $end
$var wire 1 p mem_mem_read $end
$var wire 1 m mem_reg_write $end
$var wire 5 f# mem_wb_rd_addr [4:0] $end
$var wire 1 A stall_ex $end
$var wire 1 @ stall_id $end
$var wire 1 ? stall_if $end
$var wire 1 W wb_reg_write $end
$var wire 5 g# wb_rd_addr [4:0] $end
$var wire 32 h# wb_fwd_data [31:0] $end
$var wire 1 > stall_mem $end
$var wire 32 i# id_rs2_data_reg [31:0] $end
$var wire 32 j# id_rs1_data_reg [31:0] $end
$var reg 2 k# fwd_a [1:0] $end
$var reg 2 l# fwd_b [1:0] $end
$var reg 32 m# rs1_data_fwd [31:0] $end
$var reg 32 n# rs2_data_fwd [31:0] $end
$upscope $end
$scope module u_memory $end
$var wire 32 o# cache_addr [31:0] $end
$var wire 1 x cache_hit $end
$var wire 32 p# cache_rdata [31:0] $end
$var wire 1 v cache_req $end
$var wire 32 q# cache_wdata [31:0] $end
$var wire 1 - clk $end
$var wire 32 r# ex_mem_alu_result [31:0] $end
$var wire 32 s# ex_mem_pc [31:0] $end
$var wire 5 t# ex_mem_rd_addr [4:0] $end
$var wire 1 p ex_mem_read $end
$var wire 32 u# ex_mem_rs2_data [31:0] $end
$var wire 1 n ex_mem_write $end
$var wire 1 m ex_reg_write $end
$var wire 2 v# ex_wb_sel [1:0] $end
$var wire 1 w# is_cache $end
$var wire 1 x# is_mem_access $end
$var wire 1 y# is_mmio $end
$var wire 32 z# mmio_addr [31:0] $end
$var wire 32 {# mmio_rdata [31:0] $end
$var wire 1 9 mmio_ready $end
$var wire 1 O mmio_req $end
$var wire 32 |# mmio_wdata [31:0] $end
$var wire 1 / rst_n $end
$var wire 1 > stall_mem $end
$var wire 32 }# read_data_mux [31:0] $end
$var wire 1 M mmio_wr_en $end
$var wire 1 t cache_wr_en $end
$var parameter 32 ~# MMIO_BASE_ADDR $end
$var parameter 32 !$ PC_WIDTH $end
$var reg 1 W mem_reg_write $end
$var reg 32 "$ mem_wb_alu_result [31:0] $end
$var reg 32 #$ mem_wb_pc [31:0] $end
$var reg 5 $$ mem_wb_rd_addr [4:0] $end
$var reg 32 %$ mem_wb_read_data [31:0] $end
$var reg 2 &$ mem_wb_sel [1:0] $end
$upscope $end
$scope module u_regfile $end
$var wire 1 - clk $end
$var wire 5 '$ rs1_addr [4:0] $end
$var wire 5 ($ rs2_addr [4:0] $end
$var wire 1 / rst_n $end
$var wire 32 )$ rs2_data [31:0] $end
$var wire 32 *$ rs1_data [31:0] $end
$var wire 1 ; reg_write $end
$var wire 32 +$ rd_data [31:0] $end
$var wire 5 ,$ rd_addr [4:0] $end
$var parameter 5 -$ x0 $end
$var parameter 32 .$ zer0 $end
$var integer 32 /$ i [31:0] $end
$upscope $end
$scope module u_writeback $end
$var wire 1 W mem_reg_write $end
$var wire 32 0$ mem_wb_alu_result [31:0] $end
$var wire 32 1$ mem_wb_pc [31:0] $end
$var wire 5 2$ mem_wb_rd_addr [4:0] $end
$var wire 32 3$ mem_wb_read_data [31:0] $end
$var wire 2 4$ mem_wb_sel [1:0] $end
$var wire 5 5$ wb_rd_addr [4:0] $end
$var wire 1 ; wb_reg_write $end
$var wire 32 6$ wb_fwd_data [31:0] $end
$var parameter 32 7$ PC_WIDTH $end
$var reg 32 8$ write_data [31:0] $end
$upscope $end
$upscope $end
$scope task check_register $end
$var reg 32 9$ actual [31:0] $end
$var integer 32 :$ reg_idx [31:0] $end
$upscope $end
$scope task wait_for_completion $end
$var integer 32 ;$ settle_cycles [31:0] $end
$upscope $end
$upscope $end
$enddefinitions $end
$comment Show the parameter values. $end
$dumpall
b100000 7$
b0 .$
b0 -$
b100000 !$
b10000000000000000000000000000000 ~#
b10 W#
b1 V#
b10110 U#
b11 T#
b0 S#
b10011 R#
b0 Q#
b100000 P#
b100000000 O#
b1000 N#
b0 5#
b100000 4#
b0 q"
b100000 p"
b0 W"
b11000 V"
b10 U"
b0 T"
b1 S"
b100000 R"
b1 Q"
b1000000 P"
b110 O"
b1000 C"
b1000 B"
b11 A"
b0 7"
b10 6"
b1000 5"
b100 4"
b1 3"
b1000 +"
b100 *"
b11 )"
$end
#0
$dumpvars
bx ;$
bx :$
bx 9$
b0 8$
b0 6$
b0 5$
b0 4$
b0 3$
b0 2$
b0 1$
b0 0$
b100000 /$
b0 ,$
b0 +$
b0 *$
b0 )$
b0 ($
b0 '$
b0 &$
b0 %$
b0 $$
b0 #$
b0 "$
b0 }#
b0 |#
b0 {#
b0 z#
0y#
0x#
0w#
b0 v#
b0 u#
b0 t#
b0 s#
b0 r#
b0 q#
b0 p#
b0 o#
b0 n#
b0 m#
b0 l#
b0 k#
b0 j#
b0 i#
b0 h#
b0 g#
b0 f#
b0 e#
0d#
0c#
b0 b#
b0 a#
b0 `#
b0 _#
b0 ^#
b0 ]#
0\#
b100000000 [#
b0 Z#
b0 Y#
b10011 X#
b0 M#
b0 L#
b100 K#
1J#
b0 I#
b0 H#
b0 G#
0F#
b10100000000000010010011 E#
b0 D#
0C#
b0 B#
b0 A#
b1 @#
b0 ?#
b0 >#
b0 =#
b0 <#
b0 ;#
b0 :#
b0 9#
b0 8#
b0 7#
b0 6#
b0 3#
b0 2#
b0 1#
b0 0#
b0 /#
b0 .#
b0 -#
b0 ,#
b0 +#
b0 *#
b0 )#
b0 (#
b0 '#
b0 &#
b0 %#
0$#
b0 ##
b0 "#
b0 !#
b0 ~"
b0 }"
b0 |"
b0 {"
b0 z"
b0 y"
b0 x"
b0 w"
1v"
0u"
0t"
1s"
b0 r"
b0 o"
1n"
1m"
b0 l"
b0 k"
1j"
b10011 i"
b0 h"
0g"
0f"
0e"
0d"
b10011 c"
b0 b"
b0 a"
b0 `"
b0 _"
b0 ^"
b0 ]"
b0 \"
b0 ["
b1000000 Z"
b0 Y"
b0 X"
b0 N"
b0 M"
b0 L"
1K"
b0 J"
0I"
b0 H"
0G"
b0 F"
b0 E"
b0 D"
b0 @"
bx ?"
bx >"
b0 ="
b0 <"
b0 ;"
b0 :"
b0 9"
b0 8"
02"
01"
10"
0/"
b0 ."
0-"
0,"
0("
1'"
b0 &"
b0 %"
b0 $"
0#"
0""
0!"
0~
0}
0|
b0 {
b0 z
b0 y
0x
b0 w
0v
b0 u
0t
b0 s
b0 r
b0 q
0p
b0 o
0n
0m
b0 l
0k
b0 j
b0 i
b0 h
0g
b0 f
b0 e
b0 d
b0 c
b0 b
b0 a
b0 `
0_
0^
0]
b0 \
b10011 [
b0 Z
0Y
b0 X
0W
b0 V
b0 U
b0 T
b0 S
b0 R
b0 Q
b0 P
0O
b0 N
0M
b0 L
b0 K
b0 J
b0 I
b0 H
b0 G
0F
1E
0D
b0 C
0B
0A
0@
0?
0>
b0 =
b0 <
0;
0:
19
b10100000000000010010011 8
b100000 7
bx 6
b0 5
bx 4
bx 3
bx 2
bx 1
00
0/
b10100000000000010010011 .
0-
b0 ,
1+
0*
0)
0(
b0 '
b0 &
b0 %
0$
0#
0"
0!
$end
#5000
b11111111111111111111111111111111 1
b0 2
b0 3
b0 6
b0 4
b1000000 Z"
b100000 /$
b100000000 [#
1-
#10000
0-
#15000
b100000000 [#
b100000 /$
b1000000 Z"
1-
#20000
b0 ;$
0-
1/
#25000
b1000 K#
b1 b"
b101 I
b101 _"
b101 b#
b101 ($
b101 z
b101 o"
b101 ?#
b101 ##
b1 M#
b101000000000000100010011 .
b101000000000000100010011 8
b101000000000000100010011 E#
b0 1
b1 4
1]
1g
b10100000000000010010011 [
b10100000000000010010011 i"
b10100000000000010010011 X#
b100 ,
b100 X
b100 D#
b100 Z#
1-
#30000
0-
#35000
b1100 K#
b101 6#
b10 b"
b1010 I
b1010 _"
b1010 b#
b1010 ($
b1010 ##
b1 I#
b10 M#
b1000001000000110110011 .
b1000001000000110110011 8
b1000001000000110110011 E#
b101 .#
b101 2#
b101000000000000100010011 [
b101000000000000100010011 i"
b101000000000000100010011 X#
b1110 z
b1110 o"
b1110 ?#
b100 {
b100 ["
b100 >#
b100 Z
b100 h"
b100 Y#
b1000 ,
b1000 X
b1000 D#
b1000 Z#
b101 a
b101 ~"
b101 `#
b1 d
b1 {"
b1 (#
b1 ^#
b101 f
b101 y"
b101 &#
1m
b10 4
1-
#40000
0-
#45000
0n"
1d"
0m"
b101 \"
b101 J
b101 `"
b101 m#
b10000 K#
b1010 6#
b1 L
b1 a"
b1 a#
b1 '$
0s"
b1 M"
b1010 .#
b1010 2#
b11 b"
b10 I
b10 _"
b10 b#
b10 ($
b110011 c"
b0 ##
b10 I#
b11 M#
b1000000000100010000001000110011 .
b1000000000100010000001000110011 8
b1000000000100010000001000110011 E#
b11 4
1(
1;
1W
b1 q
b1 9#
b1 f#
b1 t#
b101 y
b101 N"
b101 o#
b101 Q
b101 z#
b101 s
b101 ,#
b101 7#
b101 ]#
b101 e#
b101 r#
b1010 a
b1010 ~"
b1010 `#
b10 d
b10 {"
b10 (#
b10 ^#
b1010 f
b1010 y"
b1010 &#
b100 e
b100 z"
b100 '#
b1000001000000110110011 [
b1000001000000110110011 i"
b1000001000000110110011 X#
b1000 z
b1000 o"
b1000 ?#
b1000 {
b1000 ["
b1000 >#
b1000 Z
b1000 h"
b1000 Y#
b1100 ,
b1100 X
b1100 D#
b1100 Z#
1-
#50000
0-
#55000
b101 H
b101 i#
b101 )$
b10100 K#
b0 K
b0 j#
b0 *$
1d"
0m"
b1010 \"
b1010 J
b1010 `"
b1010 m#
b10 L
b10 a"
b10 a#
b10 '$
b1 r"
b1111 6#
b100 b"
b1 I
b1 _"
b1 b#
b1 ($
b100000 k"
b11 I#
b100 M#
b1000001111001010110011 .
b1000001111001010110011 8
b1000001111001010110011 E#
b1010 =#
b101 -#
b101 3#
b101 <#
b10 M"
1j"
0e"
b101 ]"
b101 G
b101 ^"
b101 n#
b10 i
b10 0#
b10 l#
b1 j
b1 1#
b1 k#
b101 &
b101 =
b101 /#
b101 h#
b101 +$
b101 6$
b101 8$
b1000000000100010000001000110011 [
b1000000000100010000001000110011 i"
b1000000000100010000001000110011 X#
b1100 z
b1100 o"
b1100 ?#
b1100 {
b1100 ["
b1100 >#
b1100 Z
b1100 h"
b1100 Y#
b10000 ,
b10000 X
b10000 D#
b10000 Z#
0g
b10 a
b10 ~"
b10 `#
b1 c
b1 |"
b1 _#
b11 d
b11 {"
b11 (#
b11 ^#
b0 f
b0 y"
b0 &#
b101 b
b101 }"
b101 )#
b1000 e
b1000 z"
b1000 '#
b10 q
b10 9#
b10 f#
b10 t#
b1010 y
b1010 N"
b1010 o#
b1010 Q
b1010 z#
b1010 s
b1010 ,#
b1010 7#
b1010 ]#
b1010 e#
b1010 r#
b100 r
b100 8#
b100 s#
b1 %
b1 <
b1 ,$
b1 5$
b1 T
b1 g#
b1 $$
b1 2$
b101 V
b101 "$
b101 0$
b100 4
1-
#60000
0-
#65000
b101 K
b101 j#
b101 *$
b1010 H
b1010 i#
b1010 )$
b11000 K#
b1010 ]"
b1010 G
b1010 ^"
b1010 n#
0j"
1e"
b1010 -#
b1010 3#
b1010 <#
b101 .#
b101 2#
b1 L
b1 a"
b1 a#
b1 '$
b10 r"
b1010 &
b1010 =
b1010 /#
b1010 h#
b1010 +$
b1010 6$
b1010 8$
b1010 $"
b1010 @"
1d"
0m"
b101 \"
b101 J
b101 `"
b101 m#
b11 M"
b101 6#
b0 i
b0 0#
b0 l#
b101 =#
b101 b"
b10 I
b10 _"
b10 b#
b10 ($
b0 k"
b111 l"
b100 I#
b101 M#
b1000001110001100110011 .
b1000001110001100110011 8
b1000001110001100110011 E#
b101 4
b10 %
b10 <
b10 ,$
b10 5$
b10 T
b10 g#
b10 $$
b10 2$
b1010 V
b1010 "$
b1010 0$
b100 '
b100 U
b100 #$
b100 1$
b11 q
b11 9#
b11 f#
b11 t#
b1010 u
b1010 J"
b1010 q#
b1010 N
b1010 |#
b1010 o
b1010 :#
b1010 u#
b1111 y
b1111 N"
b1111 o#
b1111 Q
b1111 z#
b1111 s
b1111 ,#
b1111 7#
b1111 ]#
b1111 e#
b1111 r#
b1000 r
b1000 8#
b1000 s#
b1 h
b1 x"
b1 %#
b1 a
b1 ~"
b1 `#
b10 c
b10 |"
b10 _#
b100 d
b100 {"
b100 (#
b100 ^#
b101 `
b101 !#
b101 *#
b1010 b
b1010 }"
b1010 )#
b1100 e
b1100 z"
b1100 '#
b1000001111001010110011 [
b1000001111001010110011 i"
b1000001111001010110011 X#
b10000 z
b10000 o"
b10000 ?#
b10000 {
b10000 ["
b10000 >#
b10000 Z
b10000 h"
b10000 Y#
b10100 ,
b10100 X
b10100 D#
b10100 Z#
1-
#70000
0-
#75000
b11100 K#
b0 6#
b11 r"
b1010 .#
b1010 2#
b110 b"
b110 l"
b101 I#
b110 M#
b1000001100001110110011 .
b1000001100001110110011 8
b1000001100001110110011 E#
b101 $"
b101 @"
b1010 =#
b101 -#
b101 3#
b101 <#
b1 M"
b0 j
b0 1#
b0 k#
b1111 &
b1111 =
b1111 /#
b1111 h#
b1111 +$
b1111 6$
b1111 8$
b1000001110001100110011 [
b1000001110001100110011 i"
b1000001110001100110011 X#
b10100 z
b10100 o"
b10100 ?#
b10100 {
b10100 ["
b10100 >#
b10100 Z
b10100 h"
b10100 Y#
b11000 ,
b11000 X
b11000 D#
b11000 Z#
b10 h
b10 x"
b10 %#
b10 a
b10 ~"
b10 `#
b1 c
b1 |"
b1 _#
b101 d
b101 {"
b101 (#
b101 ^#
b1010 `
b1010 !#
b1010 *#
b101 b
b101 }"
b101 )#
b10000 e
b10000 z"
b10000 '#
b100 q
b100 9#
b100 f#
b100 t#
b101 u
b101 J"
b101 q#
b101 N
b101 |#
b101 o
b101 :#
b101 u#
b101 y
b101 N"
b101 o#
b101 Q
b101 z#
b101 s
b101 ,#
b101 7#
b101 ]#
b101 e#
b101 r#
b1100 r
b1100 8#
b1100 s#
b11 %
b11 <
b11 ,$
b11 5$
b11 T
b11 g#
b11 $$
b11 2$
b1111 V
b1111 "$
b1111 0$
b1000 '
b1000 U
b1000 #$
b1000 1$
b1 6
b100 1
b110 4
1-
#80000
0-
#85000
1n"
b100000 K#
b100 r"
b101 &
b101 =
b101 /#
b101 h#
b101 +$
b101 6$
b101 8$
b1010 $"
b1010 @"
b0 M"
b1111 6#
b111 b"
b100 l"
b110 I#
b111 M#
b1000001010010000110011 .
b1000001010010000110011 8
b1000001010010000110011 E#
b10 6
b1000 1
b111 4
b100 %
b100 <
b100 ,$
b100 5$
b100 T
b100 g#
b100 $$
b100 2$
b101 V
b101 "$
b101 0$
b1100 '
b1100 U
b1100 #$
b1100 1$
b101 q
b101 9#
b101 f#
b101 t#
b1010 u
b1010 J"
b1010 q#
b1010 N
b1010 |#
b1010 o
b1010 :#
b1010 u#
b0 y
b0 N"
b0 o#
b0 Q
b0 z#
b0 s
b0 ,#
b0 7#
b0 ]#
b0 e#
b0 r#
b10000 r
b10000 8#
b10000 s#
b11 h
b11 x"
b11 %#
b110 d
b110 {"
b110 (#
b110 ^#
b10100 e
b10100 z"
b10100 '#
b1000001100001110110011 [
b1000001100001110110011 i"
b1000001100001110110011 X#
b11000 z
b11000 o"
b11000 ?#
b11000 {
b11000 ["
b11000 >#
b11000 Z
b11000 h"
b11000 Y#
b11100 ,
b11100 X
b11100 D#
b11100 Z#
1-
#90000
0-
